L_score_1_name   Mvmnt_1;
0 0 console .;
console --------------- Movement 1 -----------------;
console 1 --------------- 1st Rakete ------------------;
console Next: 2nd Rakete; console  . ;
US_stop bang;
L_master_vol 80 100;
L_delay_1_len 1000;
1000 L_delay_1_vol 65 100;
10000 L_delay_1_vol 0 3000;
0 1 console 2 --------------- 2nd Rakete -----------------;
console Next 3rd Rakete; console .;
L_delay_1_len 1000;
1000 L_delay_1_vol 91 100;
L_space 1;
L_space_1 1;
L_space_2 1;
L_space_1_freq 7;
L_space_2_freq -10.2;
10000 L_delay_1_vol 0 3000;
0 2 console 3 --------------- 3rd Rakete -----------------;
console Next Kwiiee; console .;
L_delay_1_len 1000;
1000 L_delay_1_vol 100 100;
L_delay_2_len 3000;
2000 L_delay_2_vol 100 100;
L_delay_3_len 5000;
2000 L_delay_3_vol 100 100;
5000 L_delay_1_vol 0 4000;
L_delay_2_vol 0 4000;
L_delay_3_vol 0 4000;
3000 L_delay_1_play 500;
1000 L_delay_1_vol 70;
1000 L_delay_2_vol 70;
L_delay_1_vol 80;
4000 L_delay_3_vol 70;
L_delay_1_len 1500;
L_delay_2_len 3000;
L_delay_3_len 4500;
3000 L_delay_1_vol 80;
L_delay_1_len 3000;
L_delay_2_len 6000;
L_delay_3_len 9000;
3000 L_delay_1_vol 80;
1000 L_delay_2_vol 80;

0 3 console 4 --------------- Kwiiee ---------------------;
console Next  Zikete Bee bee; console . ;
L_delay_1_len 600;
600 L_delay_2_len 1200;
L_delay_1_fbk 91;
600 L_delay_3_len 1800;
L_delay_2_fbk 91;
600 L_delay_1_len 2400;
L_delay_3_fbk 91;
600 L_delay_2_len 3000;
600 L_delay_3_len 3600;
600 L_delay_1_len 4200;
L_delay_1_vol 0 15000;
L_delay_2_vol 0 15000;
L_delay_3_vol 0 15000;
15000 L_delay_1_fbk 0;
L_delay_2_fbk 0;
L_delay_3_fbk 0;

0 4 console 5 ---------------- Zikete Bee bee -------------;
console Rakete bee bee; console .;
L_delay_mark bang;
L_delay_1_freq 37;
L_delay_2_freq 40;
L_delay_3_freq 47;
L_delay_1_len 500;
L_space 1;
L_space_freq 7;
1000 L_delay_1_vol 64 2000;
1000 L_delay_2_vol 64 2000;
L_delay_1_vol_change 10;
4000 L_delay_3_vol 70 2000;
1000 L_delay_2_vol_change 10;
1000 L_delay_3_vol_change 10;
L_delay_1_fbk 55;
L_delay_2_fbk 55;
L_delay_3_fbk 55;
L_delay_1_len 1000;
L_delay_2_len 2000;
L_delay_3_len 3000;
3000 L_delay_1_vol_change 18;
L_delay_1_len 2000;
L_delay_2_len 3000;
L_delay_3_len 4000;
1000 L_delay_2_vol_change 18;

0 5 console 6 ---------------- Rakete bee bee-------------;
console Next  Rum! ..  ; console .;
L_delay_1_vol 0 4000;
L_delay_2_vol 0 4000;
L_delay_3_vol 0 4000;
L_delay_1_fbk 0; L_delay_2_fbk 0; L_delay_3_fbk 0;
L_delay_1_freq 0;
L_delay_2_freq 0;
L_delay_3_freq 0;

0 6 console 7 ---------------- Rum! ..  --------------------;
console Next Rakete bee bee; console .;
L_delay_mark bang;
L_delay_1_len 500;
L_delay_2_len 1500;
L_delay_3_len 3000;
L_space 1;
L_space_freq 9;
1000 L_delay_1_vol 64 2000;
1000 L_delay_2_vol 64 2000;
L_delay_1_vol 75 4000;
4000 L_delay_3_vol 64 2000;
L_delay_2_vol 75 4000;
L_delay_3_vol 75 4000;
L_delay_1_fbk 64;
L_delay_2_fbk 64;
L_delay_3_fbk 64;
L_delay_1_len 1000;
L_delay_2_len 2000;
L_delay_3_len 3000;
3000 L_delay_1_vol_change 10 3000;
L_input_1_vol 85 3000;
15000 L_sf_1_offset 10000;
L_sf_1_file Rums.wav;
L_sf_1_vol 65;
L_sf_1_1_send_input_vol 100;
L_sf_1_1_send_input_ch 2;
L_input_2_vol 100;
L_sf_1_play 1;
L_delay_1_mark bang;
200 L_delay_2_mark bang;
500 L_delay_3_mark bang;
10000 L_sf_1_offset 0;
L_sf_1_file Rums.wav;
10000 L_sf_1_offset 0;
L_sf_1_file Rums.wav;
L_sf_1_play 1;
L_delay_1_len 2000;
L_delay_2_len 3000;
L_delay_3_len 4000;
1000 L_delay_2_vol_change 36;
4000 L_delay_1_len 4000;
L_delay_2_len 5000;
L_delay_3_len 6000;

0 7 console 8 ---------------- Rakete bee bee -------------;
console Next Abrupt Rum! On .. ; console .;
L_delay_1_vol 0 12000;
L_delay_2_vol 0 12000;
L_delay_3_vol 0 12000;

0 8 console 9 ---------------- Abrupt Rum! On ..  -----------;
console Next Rakete Bee Zee; console .;
L_master_vol 85 100;
L_delay_1_play 1;
L_delay_2_play 1;
L_delay_3_play 1;
L_delay_1_vol 100 100;
L_delay_2_vol 100 100;
L_delay_3_vol 100 100;
L_input_1_vol 85 4000;
L_sf_1_offset 2000;
L_sf_1_file RevRums.wav;
L_sf_1_vol 80;
L_sf_1_1_send_voice_vol 100;
L_sf_1_1_send_voice_ch 2;
L_delay_1_fbk 72;
L_delay_2_fbk 72;
L_delay_3_fbk 72;
L_input_2_vol 100;
L_sf_1_1_send_input_ch 2;
L_sf_1_1_send_input_vol 100;
L_sf_1_play 1;
5000 L_delay_1_len 2000;
L_delay_2_len 3000;
L_delay_3_len 5000;

0 9  console 10  ---------------- Rakete Bee Zee -------------;
console Next Rakete Rinzeket;
L_delay_1_fbk 0; L_delay_2_fbk 0; L_delay_3_fbk 0;
L_delay_1_freq 0;
L_delay_2_freq 0;
L_delay_3_freq 0;
L_delay_1_vol 0 100;
L_delay_2_vol 0 100;
L_delay_3_vol 0 100;
L_input_1_vol 100;

0 10  console 11 ---------------- Rakete Rinzekete -------------;
console Next Kwiiee; console .;
L_master_vol 85 100;
L_delay_1_len 1000;
2000 L_delay_1_vol 96 100;
2000 L_delay_2_len 3000;
2000 L_delay_2_vol 96 100;
L_delay_3_len 5000;
2000 L_delay_3_vol 96 100;
comment 8000 L_delay_1_vol 0 5000;
comment L_delay_2_vol 0 5000;
comment L_delay_3_vol 0 5000;
13000 L_delay_1_len 500;
comment 1000 L_delay_1_vol 70 5000;
comment 1000 L_delay_2_vol 70 5000;
comment L_delay_1_vol_change 10;
comment 4000 L_delay_3_vol_change 10;
comment 1000 L_delay_2_vol_change 10;
comment 1000 L_delay_3_vol_change 10;
8000 comment wating for the above changes;
L_delay_1_len 2000;
L_delay_2_len 3000;
L_delay_3_len 5000;
3000 L_delay_1_vol_change -10;
L_delay_1_len 3000;
L_delay_2_len 5000;
L_delay_3_len 7000;
1000 L_delay_2_vol_change -10;
55000 L_delay_1_fbk 82 10000;
L_input_1_vol 110 5000;
L_delay_2_fbk 82 5000;
L_delay_2_fbk 82 5000;
L_delay_1_len 100;
2000 L_delay_1_len 150;
4000 L_delay_2_len 200;

0 11 console 12 ---------------- Kwiiee --------------------;
console Next Movement 2; console .;
L_input_1_vol 91;
L_delay_1_len 400;
410 L_delay_2_len 800;
L_delay_1_fbk 70;
800 L_delay_3_len 1200;
L_delay_2_fbk 70;
400 L_delay_1_len 1600;
L_delay_3_fbk 70;
400 L_delay_2_len 2000;
400 L_delay_3_len 2400;
400 L_delay_1_len 2800;
L_delay_1_vol 0 15000;
L_delay_2_vol 0 15000;
L_delay_3_vol 0 15000;
22000 L_delay_1_fbk 0; L_delay_2_fbk 0; L_delay_3_fbk 0;
0 12 console 12 ---------------- Movement 2 --------------------;
us_nextmvmnt bang;
